<?xml version="1.0" encoding="UTF-8" standalone="no"?>
<?xml-stylesheet href="dep.css" type="text/css"?>
<!DOCTYPE svg PUBLIC "-//W3C//DTD SVG 1.1//EN"
 "http://www.w3.org/Graphics/SVG/1.1/DTD/svg11.dtd">
<!-- Generated by graphviz version 2.40.1 (20161225.0304)
 -->
<!-- Title: fstring dependencies Pages: 1 -->
<svg width="254pt" height="188pt"
 viewBox="0.00 0.00 254.19 188.00" xmlns="http://www.w3.org/2000/svg" xmlns:xlink="http://www.w3.org/1999/xlink">
<g id="graph0" class="graph" transform="scale(1 1) rotate(0) translate(4 184)">
<title>fstring dependencies</title>
<polygon fill="#ffffff" stroke="transparent" points="-4,4 -4,-184 250.1938,-184 250.1938,4 -4,4"/>
<!-- fstring -->
<g id="node1" class="node">
<title>fstring</title>
<g id="a_node1"><a xlink:href="gut_fstring.html" xlink:title="fstring" target="gutlibdoc">
<ellipse fill="#00ff00" stroke="#000000" cx="127.0467" cy="-90" rx="33.5952" ry="18"/>
<text text-anchor="middle" x="127.0467" y="-86.3" font-family="Times,serif" font-size="14.00" fill="#000000">fstring</text>
</a>
</g>
</g>
<!-- buffer -->
<g id="node2" class="node">
<title>buffer</title>
<g id="a_node2"><a xlink:href="gut_buffer.html" xlink:title="buffer" target="gutlibdoc">
<ellipse fill="none" stroke="#000000" cx="127.0467" cy="-18" rx="32.4942" ry="18"/>
<text text-anchor="middle" x="127.0467" y="-14.3" font-family="Times,serif" font-size="14.00" fill="#000000">buffer</text>
</a>
</g>
</g>
<!-- fstring&#45;&gt;buffer -->
<g id="edge1" class="edge">
<title>fstring&#45;&gt;buffer</title>
<g id="a_edge1"><a xlink:title="buffer begat fstring">
<path fill="none" stroke="#000000" d="M127.0467,-61.5726C127.0467,-53.1084 127.0467,-44.0593 127.0467,-36.4133"/>
<polygon fill="#000000" stroke="#000000" points="123.5468,-61.8313 127.0467,-71.8314 130.5468,-61.8314 123.5468,-61.8313"/>
</a>
</g>
</g>
<!-- mangle -->
<g id="node3" class="node">
<title>mangle</title>
<g id="a_node3"><a xlink:href="gut_mangle.html" xlink:title="mangle" target="gutlibdoc">
<ellipse fill="none" stroke="#000000" cx="37.0467" cy="-162" rx="37.0935" ry="18"/>
<text text-anchor="middle" x="37.0467" y="-158.3" font-family="Times,serif" font-size="14.00" fill="#000000">mangle</text>
</a>
</g>
</g>
<!-- mangle&#45;&gt;fstring -->
<g id="edge2" class="edge">
<title>mangle&#45;&gt;fstring</title>
<g id="a_edge2"><a xlink:title="fstring begat mangle">
<path fill="none" stroke="#000000" d="M64.5279,-140.0151C78.6598,-128.7095 95.5233,-115.2187 108.1729,-105.099"/>
<polygon fill="#000000" stroke="#000000" points="62.1976,-137.397 56.5754,-146.3771 66.5705,-142.8631 62.1976,-137.397"/>
</a>
</g>
</g>
<!-- pattern -->
<g id="node4" class="node">
<title>pattern</title>
<g id="a_node4"><a xlink:href="gut_pattern.html" xlink:title="pattern" target="gutlibdoc">
<ellipse fill="none" stroke="#000000" cx="127.0467" cy="-162" rx="35.194" ry="18"/>
<text text-anchor="middle" x="127.0467" y="-158.3" font-family="Times,serif" font-size="14.00" fill="#000000">pattern</text>
</a>
</g>
</g>
<!-- pattern&#45;&gt;fstring -->
<g id="edge3" class="edge">
<title>pattern&#45;&gt;fstring</title>
<g id="a_edge3"><a xlink:title="fstring begat pattern">
<path fill="none" stroke="#000000" d="M127.0467,-133.5726C127.0467,-125.1084 127.0467,-116.0593 127.0467,-108.4133"/>
<polygon fill="#000000" stroke="#000000" points="123.5468,-133.8313 127.0467,-143.8314 130.5468,-133.8314 123.5468,-133.8313"/>
</a>
</g>
</g>
<!-- reflect -->
<g id="node5" class="node">
<title>reflect</title>
<g id="a_node5"><a xlink:href="gut_reflect.html" xlink:title="reflect" target="gutlibdoc">
<ellipse fill="none" stroke="#000000" cx="213.0467" cy="-162" rx="33.2948" ry="18"/>
<text text-anchor="middle" x="213.0467" y="-158.3" font-family="Times,serif" font-size="14.00" fill="#000000">reflect</text>
</a>
</g>
</g>
<!-- reflect&#45;&gt;fstring -->
<g id="edge4" class="edge">
<title>reflect&#45;&gt;fstring</title>
<g id="a_edge4"><a xlink:title="fstring begat reflect">
<path fill="none" stroke="#000000" d="M186.8301,-140.0512C173.3833,-128.7934 157.3391,-115.3611 145.2588,-105.2473"/>
<polygon fill="#000000" stroke="#000000" points="184.8939,-142.9949 194.8083,-146.7307 189.3875,-137.6276 184.8939,-142.9949"/>
</a>
</g>
</g>
</g>
</svg>
