<?xml version="1.0" encoding="UTF-8" standalone="no"?>
<?xml-stylesheet href="dep.css" type="text/css"?>
<!DOCTYPE svg PUBLIC "-//W3C//DTD SVG 1.1//EN"
 "http://www.w3.org/Graphics/SVG/1.1/DTD/svg11.dtd">
<!-- Generated by graphviz version 2.40.1 (20161225.0304)
 -->
<!-- Title: type_list dependencies Pages: 1 -->
<svg width="166pt" height="188pt"
 viewBox="0.00 0.00 165.54 188.00" xmlns="http://www.w3.org/2000/svg" xmlns:xlink="http://www.w3.org/1999/xlink">
<g id="graph0" class="graph" transform="scale(1 1) rotate(0) translate(4 184)">
<title>type_list dependencies</title>
<polygon fill="#ffffff" stroke="transparent" points="-4,4 -4,-184 161.5438,-184 161.5438,4 -4,4"/>
<!-- type_list -->
<g id="node1" class="node">
<title>type_list</title>
<g id="a_node1"><a xlink:href="gut_type_list.html" xlink:title="type_list" target="gutlibdoc">
<ellipse fill="#00ff00" stroke="#000000" cx="81.0467" cy="-90" rx="40.8928" ry="18"/>
<text text-anchor="middle" x="81.0467" y="-86.3" font-family="Times,serif" font-size="14.00" fill="#000000">type_list</text>
</a>
</g>
</g>
<!-- type -->
<g id="node4" class="node">
<title>type</title>
<g id="a_node4"><a xlink:href="gut_type.html" xlink:title="type" target="gutlibdoc">
<ellipse fill="none" stroke="#000000" cx="81.0467" cy="-18" rx="27" ry="18"/>
<text text-anchor="middle" x="81.0467" y="-14.3" font-family="Times,serif" font-size="14.00" fill="#000000">type</text>
</a>
</g>
</g>
<!-- type_list&#45;&gt;type -->
<g id="edge3" class="edge">
<title>type_list&#45;&gt;type</title>
<g id="a_edge3"><a xlink:title="type begat type_list">
<path fill="none" stroke="#000000" d="M81.0467,-61.5726C81.0467,-53.1084 81.0467,-44.0593 81.0467,-36.4133"/>
<polygon fill="#000000" stroke="#000000" points="77.5468,-61.8313 81.0467,-71.8314 84.5468,-61.8314 77.5468,-61.8313"/>
</a>
</g>
</g>
<!-- mangle -->
<g id="node2" class="node">
<title>mangle</title>
<g id="a_node2"><a xlink:href="gut_mangle.html" xlink:title="mangle" target="gutlibdoc">
<ellipse fill="none" stroke="#000000" cx="37.0467" cy="-162" rx="37.0935" ry="18"/>
<text text-anchor="middle" x="37.0467" y="-158.3" font-family="Times,serif" font-size="14.00" fill="#000000">mangle</text>
</a>
</g>
</g>
<!-- mangle&#45;&gt;type_list -->
<g id="edge1" class="edge">
<title>mangle&#45;&gt;type_list</title>
<g id="a_edge1"><a xlink:title="type_list begat mangle">
<path fill="none" stroke="#000000" d="M52.9871,-135.9157C58.7566,-126.4747 65.1291,-116.047 70.3411,-107.5182"/>
<polygon fill="#000000" stroke="#000000" points="49.9259,-134.2129 47.6979,-144.5708 55.8989,-137.8631 49.9259,-134.2129"/>
</a>
</g>
</g>
<!-- ntuple -->
<g id="node3" class="node">
<title>ntuple</title>
<g id="a_node3"><a xlink:href="gut_ntuple.html" xlink:title="ntuple" target="gutlibdoc">
<ellipse fill="none" stroke="#000000" cx="125.0467" cy="-162" rx="32.4942" ry="18"/>
<text text-anchor="middle" x="125.0467" y="-158.3" font-family="Times,serif" font-size="14.00" fill="#000000">ntuple</text>
</a>
</g>
</g>
<!-- ntuple&#45;&gt;type_list -->
<g id="edge2" class="edge">
<title>ntuple&#45;&gt;type_list</title>
<g id="a_edge2"><a xlink:title="type_list begat ntuple">
<path fill="none" stroke="#000000" d="M109.282,-136.2033C103.449,-126.6583 96.9786,-116.0703 91.7049,-107.4407"/>
<polygon fill="#000000" stroke="#000000" points="106.4183,-138.2293 114.6193,-144.937 112.3913,-134.5791 106.4183,-138.2293"/>
</a>
</g>
</g>
</g>
</svg>
