<?xml version="1.0" encoding="UTF-8" standalone="no"?>
<?xml-stylesheet href="dep.css" type="text/css"?>
<!DOCTYPE svg PUBLIC "-//W3C//DTD SVG 1.1//EN"
 "http://www.w3.org/Graphics/SVG/1.1/DTD/svg11.dtd">
<!-- Generated by graphviz version 2.40.1 (20161225.0304)
 -->
<!-- Title: variant dependencies Pages: 1 -->
<svg width="259pt" height="188pt"
 viewBox="0.00 0.00 258.74 188.00" xmlns="http://www.w3.org/2000/svg" xmlns:xlink="http://www.w3.org/1999/xlink">
<g id="graph0" class="graph" transform="scale(1 1) rotate(0) translate(4 184)">
<title>variant dependencies</title>
<polygon fill="#ffffff" stroke="transparent" points="-4,4 -4,-184 254.7434,-184 254.7434,4 -4,4"/>
<!-- variant -->
<g id="node1" class="node">
<title>variant</title>
<g id="a_node1"><a xlink:href="gut_variant.html" xlink:title="variant" target="gutlibdoc">
<ellipse fill="#00ff00" stroke="#000000" cx="121.0969" cy="-90" rx="35.194" ry="18"/>
<text text-anchor="middle" x="121.0969" y="-86.3" font-family="Times,serif" font-size="14.00" fill="#000000">variant</text>
</a>
</g>
</g>
<!-- integer -->
<g id="node4" class="node">
<title>integer</title>
<g id="a_node4"><a xlink:href="gut_integer.html" xlink:title="integer" target="gutlibdoc">
<ellipse fill="none" stroke="#000000" cx="35.0969" cy="-18" rx="35.194" ry="18"/>
<text text-anchor="middle" x="35.0969" y="-14.3" font-family="Times,serif" font-size="14.00" fill="#000000">integer</text>
</a>
</g>
</g>
<!-- variant&#45;&gt;integer -->
<g id="edge3" class="edge">
<title>variant&#45;&gt;integer</title>
<g id="a_edge3"><a xlink:title="integer begat variant">
<path fill="none" stroke="#000000" d="M94.5707,-67.792C81.3406,-56.7157 65.6594,-43.5872 53.7212,-33.5924"/>
<polygon fill="#000000" stroke="#000000" points="92.5218,-70.6413 102.4362,-74.3771 97.0154,-65.274 92.5218,-70.6413"/>
</a>
</g>
</g>
<!-- ntuple -->
<g id="node5" class="node">
<title>ntuple</title>
<g id="a_node5"><a xlink:href="gut_ntuple.html" xlink:title="ntuple" target="gutlibdoc">
<ellipse fill="none" stroke="#000000" cx="121.0969" cy="-18" rx="32.4942" ry="18"/>
<text text-anchor="middle" x="121.0969" y="-14.3" font-family="Times,serif" font-size="14.00" fill="#000000">ntuple</text>
</a>
</g>
</g>
<!-- variant&#45;&gt;ntuple -->
<g id="edge4" class="edge">
<title>variant&#45;&gt;ntuple</title>
<g id="a_edge4"><a xlink:title="ntuple begat variant">
<path fill="none" stroke="#000000" d="M121.0969,-61.5726C121.0969,-53.1084 121.0969,-44.0593 121.0969,-36.4133"/>
<polygon fill="#000000" stroke="#000000" points="117.597,-61.8313 121.0969,-71.8314 124.597,-61.8314 117.597,-61.8313"/>
</a>
</g>
</g>
<!-- optional -->
<g id="node6" class="node">
<title>optional</title>
<g id="a_node6"><a xlink:href="gut_optional.html" xlink:title="optional" target="gutlibdoc">
<ellipse fill="none" stroke="#000000" cx="211.0969" cy="-18" rx="39.7935" ry="18"/>
<text text-anchor="middle" x="211.0969" y="-14.3" font-family="Times,serif" font-size="14.00" fill="#000000">optional</text>
</a>
</g>
</g>
<!-- variant&#45;&gt;optional -->
<g id="edge5" class="edge">
<title>variant&#45;&gt;optional</title>
<g id="a_edge5"><a xlink:title="optional begat variant">
<path fill="none" stroke="#000000" d="M148.0228,-68.4593C161.9693,-57.3021 178.6935,-43.9227 191.4155,-33.7451"/>
<polygon fill="#000000" stroke="#000000" points="145.8058,-65.7506 140.1836,-74.7307 150.1787,-71.2167 145.8058,-65.7506"/>
</a>
</g>
</g>
<!-- pattern -->
<g id="node2" class="node">
<title>pattern</title>
<g id="a_node2"><a xlink:href="gut_pattern.html" xlink:title="pattern" target="gutlibdoc">
<ellipse fill="none" stroke="#000000" cx="79.0969" cy="-162" rx="35.194" ry="18"/>
<text text-anchor="middle" x="79.0969" y="-158.3" font-family="Times,serif" font-size="14.00" fill="#000000">pattern</text>
</a>
</g>
</g>
<!-- pattern&#45;&gt;variant -->
<g id="edge1" class="edge">
<title>pattern&#45;&gt;variant</title>
<g id="a_edge1"><a xlink:title="variant begat pattern">
<path fill="none" stroke="#000000" d="M94.3518,-135.8486C99.9026,-126.3331 106.0335,-115.823 111.0235,-107.2687"/>
<polygon fill="#000000" stroke="#000000" points="91.2794,-134.1694 89.2639,-144.5708 97.3259,-137.6966 91.2794,-134.1694"/>
</a>
</g>
</g>
<!-- space -->
<g id="node3" class="node">
<title>space</title>
<g id="a_node3"><a xlink:href="gut_space.html" xlink:title="space" target="gutlibdoc">
<ellipse fill="none" stroke="#000000" cx="163.0969" cy="-162" rx="30.5947" ry="18"/>
<text text-anchor="middle" x="163.0969" y="-158.3" font-family="Times,serif" font-size="14.00" fill="#000000">space</text>
</a>
</g>
</g>
<!-- space&#45;&gt;variant -->
<g id="edge2" class="edge">
<title>space&#45;&gt;variant</title>
<g id="a_edge2"><a xlink:title="variant begat space">
<path fill="none" stroke="#000000" d="M148.0488,-136.2033C142.4809,-126.6583 136.3046,-116.0703 131.2706,-107.4407"/>
<polygon fill="#000000" stroke="#000000" points="145.0815,-138.0628 153.1435,-144.937 151.1279,-134.5356 145.0815,-138.0628"/>
</a>
</g>
</g>
</g>
</svg>
