<?xml version="1.0" encoding="UTF-8" standalone="no"?>
<?xml-stylesheet href="dep.css" type="text/css"?>
<!DOCTYPE svg PUBLIC "-//W3C//DTD SVG 1.1//EN"
 "http://www.w3.org/Graphics/SVG/1.1/DTD/svg11.dtd">
<!-- Generated by graphviz version 2.40.1 (20161225.0304)
 -->
<!-- Title: preprocess dependencies Pages: 1 -->
<svg width="104pt" height="188pt"
 viewBox="0.00 0.00 104.19 188.00" xmlns="http://www.w3.org/2000/svg" xmlns:xlink="http://www.w3.org/1999/xlink">
<g id="graph0" class="graph" transform="scale(1 1) rotate(0) translate(4 184)">
<title>preprocess dependencies</title>
<polygon fill="#ffffff" stroke="transparent" points="-4,4 -4,-184 100.1915,-184 100.1915,4 -4,4"/>
<!-- preprocess -->
<g id="node1" class="node">
<title>preprocess</title>
<g id="a_node1"><a xlink:href="gut_preprocess.html" xlink:title="preprocess" target="gutlibdoc">
<ellipse fill="#00ff00" stroke="#000000" cx="48.0957" cy="-90" rx="48.1917" ry="18"/>
<text text-anchor="middle" x="48.0957" y="-86.3" font-family="Times,serif" font-size="14.00" fill="#000000">preprocess</text>
</a>
</g>
</g>
<!-- pp -->
<g id="node2" class="node">
<title>pp</title>
<g id="a_node2"><a xlink:href="gut_pp.html" xlink:title="pp" target="gutlibdoc">
<ellipse fill="none" stroke="#000000" cx="48.0957" cy="-18" rx="27" ry="18"/>
<text text-anchor="middle" x="48.0957" y="-14.3" font-family="Times,serif" font-size="14.00" fill="#000000">pp</text>
</a>
</g>
</g>
<!-- preprocess&#45;&gt;pp -->
<g id="edge1" class="edge">
<title>preprocess&#45;&gt;pp</title>
<g id="a_edge1"><a xlink:title="pp begat preprocess">
<path fill="none" stroke="#000000" d="M48.0957,-61.5726C48.0957,-53.1084 48.0957,-44.0593 48.0957,-36.4133"/>
<polygon fill="#000000" stroke="#000000" points="44.5958,-61.8313 48.0957,-71.8314 51.5958,-61.8314 44.5958,-61.8313"/>
</a>
</g>
</g>
<!-- reflect -->
<g id="node3" class="node">
<title>reflect</title>
<g id="a_node3"><a xlink:href="gut_reflect.html" xlink:title="reflect" target="gutlibdoc">
<ellipse fill="none" stroke="#000000" cx="48.0957" cy="-162" rx="33.2948" ry="18"/>
<text text-anchor="middle" x="48.0957" y="-158.3" font-family="Times,serif" font-size="14.00" fill="#000000">reflect</text>
</a>
</g>
</g>
<!-- reflect&#45;&gt;preprocess -->
<g id="edge2" class="edge">
<title>reflect&#45;&gt;preprocess</title>
<g id="a_edge2"><a xlink:title="preprocess begat reflect">
<path fill="none" stroke="#000000" d="M48.0957,-133.5726C48.0957,-125.1084 48.0957,-116.0593 48.0957,-108.4133"/>
<polygon fill="#000000" stroke="#000000" points="44.5958,-133.8313 48.0957,-143.8314 51.5958,-133.8314 44.5958,-133.8313"/>
</a>
</g>
</g>
</g>
</svg>
